<?xml version="1.0" encoding="UTF-8" standalone="no"?>
<svg width="117px" height="127px" viewBox="0 0 117 127" version="1.1" xmlns="http://www.w3.org/2000/svg" xmlns:xlink="http://www.w3.org/1999/xlink" xmlns:sketch="http://www.bohemiancoding.com/sketch/ns">
    <!-- Generator: Sketch 3.3.3 (12072) - http://www.bohemiancoding.com/sketch -->
    <title>porter</title>
    <desc>Created with Sketch.</desc>
    <defs>
        <path id="path-1" d="M9.61412235e-07,32.5016804 C1.21708565e-06,14.551498 14.5468002,0 32.5000008,0 L32.5000008,0 C50.4492549,0 65,14.5408586 64.9999998,32.5016804 L64.9999988,100 L-3.59017554e-14,100 L9.61412235e-07,32.5016804 Z"></path>
        <path id="path-3" d="M1.25761617,4.11551865 C2.40335582,2.39486521 5.01092155,1 7.08695935,1 L13.7273912,1 C15.8011089,1 18.2656183,2.48175865 19.233,4.31144094 L19.6967461,5.18855906 C20.6636922,7.01741739 19.7669668,8.5 17.696073,8.5 L2.08958463,8.5 C0.0176973492,8.5 -0.734258708,7.10688444 0.412645984,5.38448135 L1.25761617,4.11551865 Z"></path>
        <path d="M17.5340636,8.5 L17.696073,8.5 C19.7669668,8.5 20.6636922,7.01741739 19.6967461,5.18855906 L19.233,4.31144094 C18.3708201,2.6807347 16.3194291,1.32639408 14.415372,1.0511131 L14.415372,1.0511131 L14.415372,1.37234364 C14.415372,2.34349041 13.6386086,3.13076042 12.665372,3.13076042 C11.6988737,3.13076042 10.915372,2.35637717 10.915372,1.37234364 L10.915372,1 L8.76552782,1 L8.76552782,1 L8.76552782,1.37234364 C8.76552782,2.34349041 7.98876438,3.13076042 7.01552782,3.13076042 C6.04902951,3.13076042 5.26552782,2.35637717 5.26552782,1.37234364 L5.26552782,1.3034422 C3.66773603,1.80501442 2.08318554,2.8756918 1.25761617,4.11551865 L0.412645984,5.38448135 C-0.734258708,7.10688444 0.0176973492,8.5 2.08958463,8.5 L2.7343752,8.5 L2.7343752,8.3503972 C2.7343752,7.37925043 3.51113864,6.59198042 4.4843752,6.59198042 C5.45087352,6.59198042 6.2343752,7.36636367 6.2343752,8.3503972 L6.2343752,8.5 L6.2343752,8.5 L8.38421939,8.5 L8.38421939,8.3503972 C8.38421939,7.37925043 9.16098283,6.59198042 10.1342194,6.59198042 C11.1007177,6.59198042 11.8842194,7.36636367 11.8842194,8.3503972 L11.8842194,8.5 L11.8842194,8.5 L14.0340636,8.5 L14.0340636,8.3503972 C14.0340636,7.37925043 14.810827,6.59198042 15.7840636,6.59198042 C16.7505619,6.59198042 17.5340636,7.36636367 17.5340636,8.3503972 L17.5340636,8.5 Z" id="path-5"></path>
        <path id="path-7" d="M2.4548076,7.64528778 C3.25236676,8.07575526 4.15172502,8.61253825 5.12746558,9.2599335 C7.94561575,11.1297513 10.773627,13.4961047 13.4137859,16.3914389 C22.3103161,26.1478319 26.9653114,39.3213547 25.1020534,56.6252921 C24.895108,58.5471791 26.2853428,60.2729387 28.2072297,60.4798842 C30.1291167,60.6868297 31.8548764,59.2965949 32.0618218,57.3747079 C34.1465533,38.0139626 28.795667,22.8710854 18.5862141,11.6748737 C15.538873,8.33300261 12.2731342,5.60037839 8.99753442,3.42704681 C7.84046248,2.65933979 6.75935199,2.01407777 5.7795674,1.48525757 C5.16778185,1.15505788 4.70887626,0.930089951 4.42806327,0.804591528 C2.6632879,0.0158939634 2.3606342,2.77428692 1.57193664,4.53906229 C0.783239073,6.30383766 -0.192838636,6.40671091 1.57193673,7.19540847 C1.69737374,7.25146765 2.0001869,7.39991486 2.4548076,7.64528778 Z"></path>
        <path id="path-9" d="M28.5719367,0.804591528 C28.2911237,0.930089951 27.8322181,1.15505788 27.2204326,1.48525757 C26.240648,2.01407777 25.1595375,2.65933979 24.0024656,3.42704681 C20.7268658,5.60037839 17.461127,8.33300261 14.4137859,11.6748737 C4.204333,22.8710854 -1.14655333,38.0139626 0.938178183,57.3747079 C1.14512364,59.2965949 2.87088331,60.6868297 4.79277028,60.4798842 C6.71465725,60.2729387 8.10489203,58.5471791 7.89794657,56.6252921 C6.03468856,39.3213547 10.6896839,26.1478319 19.5862141,16.3914389 C22.226373,13.4961047 25.0543842,11.1297513 27.8725344,9.2599335 C28.848275,8.61253825 29.7476332,8.07575526 30.5451924,7.64528778 C30.9998131,7.39991486 31.3026263,7.25146765 31.4280633,7.19540847 C33.1928386,6.40671091 33.984106,4.3367121 33.1954085,2.57193673 C32.4067109,0.807161364 30.3367121,0.0158939634 28.5719367,0.804591528 L28.5719367,0.804591528 Z"></path>
        <path id="path-11" d="M1.17476363,4.64138884 C1.20816732,3.67468981 1.9996152,2.75409467 2.9421489,2.5933493 C2.9421489,2.5933493 18.7922189,-0.405527915 34.5558044,0.150785324 C50.3193899,0.707098563 66.43892,4.8437374 66.43892,4.8437374 C67.3676311,5.06892476 68.0934648,6.03387559 68.0600175,7.00183863 L66.9575264,38.9078015 C66.9575264,38.9078015 49.3673562,34.4930537 33.3886137,33.9291474 C17.4098712,33.365241 0.0722725648,36.5473517 0.0722725648,36.5473517 L1.17476363,4.64138884 L1.17476363,4.64138884 Z"></path>
    </defs>
    <g id="Page-2" stroke="none" stroke-width="1" fill="none" fill-rule="evenodd" sketch:type="MSPage">
        <g id="where" sketch:type="MSArtboardGroup" transform="translate(-101.000000, -85.000000)">
            <g id="porter" sketch:type="MSLayerGroup" transform="translate(101.000000, 85.000000)">
                <g id="Rectangle-224" transform="translate(26.000000, 14.000000)">
                    <mask id="mask-2" sketch:name="Mask" fill="white">
                        <use xlink:href="#path-1"></use>
                    </mask>
                    <use id="Mask" fill="#FCB84E" sketch:type="MSShapeGroup" xlink:href="#path-1"></use>
                    <path d="M57,29.5418774 L57,123 L84,123 L84,-19 L57,-19 L57,20.9047322 C55.7206003,21.9419089 54.9082832,23.4917052 54.9082832,25.2233048 C54.9082832,26.9549044 55.7206003,28.5047008 57,29.5418774 L57,29.5418774 Z" fill="#EEAF4B" sketch:type="MSShapeGroup" mask="url(#mask-2)"></path>
                    <path d="M13.622236,25.2906544 C13.1321471,26.3413816 12.367087,27.2342371 11.4213341,27.8735443 L11.4213341,27.8735443 C11.4579794,28.2232698 11.4767733,28.5784064 11.4767733,28.9379977 C11.4767733,33.1975609 8.83966253,36.8320607 5.13191109,38.2517992 L5.13191109,38.2517992 C5.1772937,38.5238088 5.20092459,38.8033264 5.20092459,39.0884453 C5.20092459,41.8364538 3.00577367,44.0641549 0.297917787,44.0641549 C-2.4099381,44.0641549 -4.60508901,41.8364538 -4.60508901,39.0884453 C-4.60508901,38.3264527 -4.43630561,37.6044661 -4.13460944,36.9588881 C-6.56083164,35.1473284 -8.13525391,32.2292524 -8.13525391,28.9379977 C-8.13525391,23.4419806 -3.74495208,18.9865784 1.67075969,18.9865784 C2.02509674,18.9865784 2.37504424,19.005651 2.71965976,19.0428397 C3.84440826,17.3292432 5.76558161,16.200181 7.94660839,16.200181 C9.72772285,16.200181 11.3355407,16.9531542 12.4778351,18.1625406 C13.3735348,16.96989 14.7880832,16.200181 16.3797801,16.200181 C19.087636,16.200181 21.2827869,18.4278821 21.2827869,21.1758907 C21.2827869,23.9238992 19.087636,26.1516003 16.3797801,26.1516003 C15.3573054,26.1516003 14.4079314,25.833978 13.622236,25.2906544 Z" id="Path" fill="#EEAE4C" sketch:type="MSShapeGroup" mask="url(#mask-2)"></path>
                </g>
                <path d="M57.3281442,84.6870632 L57.5759856,80.4097782 L46,78 L46.1016955,87 L57.3281442,84.6870632 Z M60.6718558,84.6870632 L60.4240144,80.4097782 L72,78 L71.8983045,87 L60.6718558,84.6870632 Z" id="tie" fill="#5D4B78" sketch:type="MSShapeGroup"></path>
                <path d="M60.6718558,84.6870632 L60.4240144,80.4097782 L72,78 L71.8983045,87 L60.6718558,84.6870632 L60.6718558,84.6870632 Z" id="Path" fill="#493A5F" sketch:type="MSShapeGroup"></path>
                <ellipse id="Path" fill="#5D4B78" sketch:type="MSShapeGroup" cx="58.9280576" cy="82.5728614" rx="4.10439288" ry="4.06658157"></ellipse>
                <g id="mouth" transform="translate(60.000000, 67.500000) rotate(-180.000000) translate(-60.000000, -67.500000) translate(50.000000, 63.000000)">
                    <mask id="mask-4" sketch:name="mouth copy" fill="white">
                        <use xlink:href="#path-3"></use>
                    </mask>
                    <use id="mouth-copy" fill="#FFFFFF" sketch:type="MSShapeGroup" xlink:href="#path-3"></use>
                    <mask id="mask-6" sketch:name="mouth" fill="white">
                        <use xlink:href="#path-5"></use>
                    </mask>
                    <use fill="#404041" sketch:type="MSShapeGroup" xlink:href="#path-5"></use>
                </g>
                <g id="eyes" transform="translate(41.000000, 44.000000)" sketch:type="MSShapeGroup">
                    <g id="eye" transform="translate(23.000000, 0.000000)">
                        <circle id="white" fill="#FFFFFF" cx="7.8760215" cy="7.06907847" r="7"></circle>
                        <circle id="black" fill="#404041" cx="7.61340464" cy="7.15776871" r="2.5"></circle>
                    </g>
                    <g id="eye-copy">
                        <circle id="white" fill="#FFFFFF" cx="7.8760215" cy="7.06907847" r="7"></circle>
                        <circle id="black" fill="#404041" cx="7.61340464" cy="7.15776871" r="2.5"></circle>
                    </g>
                </g>
                <g id="Rectangle-225-Copy" transform="translate(84.000000, 66.000000)">
                    <mask id="mask-8" sketch:name="Mask" fill="white">
                        <use xlink:href="#path-7"></use>
                    </mask>
                    <use id="Mask" fill="#EEAF4C" sketch:type="MSShapeGroup" xlink:href="#path-7"></use>
                    <rect fill="#E2A545" sketch:type="MSShapeGroup" mask="url(#mask-8)" x="7" y="-13" width="10" height="42"></rect>
                </g>
                <g id="Rectangle-225" transform="translate(0.000000, 66.000000)">
                    <mask id="mask-10" sketch:name="Mask" fill="white">
                        <use xlink:href="#path-9"></use>
                    </mask>
                    <use id="Mask" fill="#FCB84E" sketch:type="MSShapeGroup" xlink:href="#path-9"></use>
                    <rect fill="#EEAF4C" sketch:type="MSShapeGroup" mask="url(#mask-10)" x="17" y="-13" width="9" height="42"></rect>
                </g>
                <g id="hat" transform="translate(25.000000, 0.000000)">
                    <mask id="mask-12" sketch:name="hat" fill="white">
                        <use xlink:href="#path-11"></use>
                    </mask>
                    <use fill="#4E3D73" sketch:type="MSShapeGroup" xlink:href="#path-11"></use>
                    <path d="M49,1.49489367 C58.8529696,2.89700963 66.43892,4.8437374 66.43892,4.8437374 C67.3676311,5.06892476 68.0934648,6.03387559 68.0600175,7.00183863 L66.9575264,38.9078015 C66.9575264,38.9078015 59.0381805,36.920219 49,35.441963 L49,1.49489367 Z" fill="#413361" sketch:type="MSShapeGroup" mask="url(#mask-12)"></path>
                    <path d="M67.7522956,15.9072727 L67.5066575,23.0160122 C61.6612207,21.7164255 55.1757022,20.7942384 48.1589914,20.2198381 C34.1350999,19.0718177 19.0807599,19.3559524 4.64061908,20.5270665 C3.22919169,20.6415351 1.88476503,20.7601243 0.613624519,20.8806892 L0.857339406,13.8276088 C1.88779363,13.7331588 2.96121611,13.6402851 4.07476786,13.5499746 C18.8622573,12.35069 34.2743668,12.0598028 48.7301133,13.2431756 C55.5484315,13.8013352 61.9148446,14.6783971 67.7522956,15.9072727 Z" fill="#F7B84E" sketch:type="MSShapeGroup" mask="url(#mask-12)"></path>
                </g>
                <path d="M90.220393,47.9195088 C89.3106593,46.924682 88.7592533,45.6214315 88.7592533,44.1947718 C85.5004161,44.1947718 82.8586066,41.6632933 82.8586066,38.5405563 C82.8586066,35.4178194 85.5004161,32.8863409 88.7592533,32.8863409 C92.0180906,32.8863409 94.6599001,35.4178194 94.6599001,38.5405563 L94.6599001,38.5405563 C97.9187373,38.5405563 100.560547,41.0720348 100.560547,44.1947718 C100.560547,47.0098813 98.4136002,49.3444866 95.6031054,49.7771409 C95.6037031,49.8010203 95.6040036,49.8249701 95.6040036,49.8489873 C95.6040036,51.4728105 94.2302626,52.7891793 92.5356673,52.7891793 C90.8410719,52.7891793 89.4673309,51.4728105 89.4673309,49.8489873 C89.4673309,49.1106492 89.7513437,48.4358755 90.220393,47.9195088 Z M38.622236,37.2906544 C38.1321471,38.3413816 37.367087,39.2342371 36.4213341,39.8735443 L36.4213341,39.8735443 C36.4579794,40.2232698 36.4767733,40.5784064 36.4767733,40.9379977 C36.4767733,45.1975609 33.8396625,48.8320607 30.1319111,50.2517992 L30.1319111,50.2517992 C30.1772937,50.5238088 30.2009246,50.8033264 30.2009246,51.0884453 C30.2009246,53.8364538 28.0057737,56.0641549 25.2979178,56.0641549 C22.5900619,56.0641549 20.394911,53.8364538 20.394911,51.0884453 C20.394911,50.3264527 20.5636944,49.6044661 20.8653906,48.9588881 C18.4391684,47.1473284 16.8647461,44.2292524 16.8647461,40.9379977 C16.8647461,35.4419806 21.2550479,30.9865784 26.6707597,30.9865784 C27.0250967,30.9865784 27.3750442,31.005651 27.7196598,31.0428397 C28.8444083,29.3292432 30.7655816,28.200181 32.9466084,28.200181 C34.7277229,28.200181 36.3355407,28.9531542 37.4778351,30.1625406 C38.3735348,28.96989 39.7880832,28.200181 41.3797801,28.200181 C44.087636,28.200181 46.2827869,30.4278821 46.2827869,33.1758907 C46.2827869,35.9238992 44.087636,38.1516003 41.3797801,38.1516003 C40.3573054,38.1516003 39.4079314,37.833978 38.622236,37.2906544 L38.622236,37.2906544 Z" id="hair" fill="#404041" sketch:type="MSShapeGroup"></path>
                <path d="M39.3125,47.1238777 C39.3125,47.1238777 44.1460048,41.9599163 55.612793,45.5545535" id="Path-343" stroke="#404041" stroke-width="3" stroke-linecap="round" sketch:type="MSShapeGroup" transform="translate(47.462646, 45.703052) rotate(-8.000000) translate(-47.462646, -45.703052) "></path>
                <path d="M65.7736816,43.9699174 C65.7736816,43.9699174 70.6071864,38.805956 82.0739746,42.4005932" id="Path-343-Copy" stroke="#404041" stroke-width="3" stroke-linecap="round" sketch:type="MSShapeGroup" transform="translate(73.923828, 42.549092) rotate(16.000000) translate(-73.923828, -42.549092) "></path>
                <path d="M48.5,62 C48.5,62 54.4755323,61.0366211 60.3085938,61.0366211 C65.9730596,61.0366211 71.5,62 71.5,62" id="Line" stroke="#404041" stroke-width="2" stroke-linecap="round" sketch:type="MSShapeGroup"></path>
            </g>
        </g>
    </g>
</svg>